%YAML 1.1
%TAG !u! tag:unity3d.com,2011:
--- !u!114 &11400000
MonoBehaviour:
  m_ObjectHideFlags: 0
  m_CorrespondingSourceObject: {fileID: 0}
  m_PrefabInstance: {fileID: 0}
  m_PrefabAsset: {fileID: 0}
  m_GameObject: {fileID: 0}
  m_Enabled: 1
  m_EditorHideFlags: 0
  m_Script: {fileID: 11500000, guid: f63f5e7b9d3bbd949ae5cd972ddd101f, type: 3}
  m_Name: IronLegs
  m_EditorClassIdentifier: 
  Name: IronLegs
  Icon: {fileID: 0}
  itemType: 2
  price: 7
